<?xml version="1.0" encoding="utf-8"?>
<!-- Generator: Adobe Illustrator 27.0.0, SVG Export Plug-In . SVG Version: 6.00 Build 0)  -->
<svg version="1.1" id="Layer_1" xmlns="http://www.w3.org/2000/svg" xmlns:xlink="http://www.w3.org/1999/xlink" x="0px" y="0px"
	 viewBox="0 0 277.8 237.7" style="enable-background:new 0 0 277.8 237.7;" xml:space="preserve">
<style type="text/css">
	.st0{fill:#C0B6F2;}
	.st1{fill-rule:evenodd;clip-rule:evenodd;fill:#C0B6F2;}
	.st2{fill:none;stroke:#6554C0;stroke-width:8.4615;stroke-linecap:round;stroke-miterlimit:10;}
	.st3{fill:#FF7452;}
</style>
<path class="st0" d="M179.3,55.9c10,9.1,41.4,43.4,5.2,85.8c-0.9,1.1-2.6,0.5-2.7-0.9l-5.1-83.7C176.6,55.7,178.3,54.9,179.3,55.9
	L179.3,55.9z"/>
<path class="st1" d="M266.3,50l-7.6-3.2l-3.3-1.4l9.5-15.9c0.8-1.4-0.7-2.9-2.1-2.1L231,46.2c-1.1,0.6-1,2.3,0.2,2.8l10.9,4.6
	l-9.5,15.9c-0.8,1.4,0.7,2.9,2.1,2.1l31.7-18.9C267.6,52.1,267.5,50.5,266.3,50z"/>
<path class="st1" d="M255.4,153.1l2.4-7.9l1-3.4l16.8,7.8c1.5,0.7,2.8-1,1.9-2.3l-22-29.6c-0.8-1-2.3-0.7-2.7,0.5l-3.5,11.3
	l-16.8-7.8c-1.5-0.7-2.8,1-1.9,2.3l22,29.6C253.4,154.6,255,154.3,255.4,153.1L255.4,153.1z"/>
<path class="st1" d="M265.6,99.8l-2.3-4.6l-1-2l10.8-3.8c0.9-0.3,0.8-1.7-0.2-1.9l-22.6-3.7c-0.8-0.1-1.4,0.7-1,1.4l3.3,6.5
	l-10.8,3.8c-0.9,0.3-0.8,1.7,0.2,1.9l22.6,3.7C265.3,101.3,265.9,100.5,265.6,99.8L265.6,99.8z"/>
<path class="st2" d="M211.8,106.2c0-1,0.1-2,0.1-3c0-29.4-16.7-54.1-31.9-61.2c-1.1-0.5-1.8-1.6-1.8-2.8V4.2"/>
<path class="st2" d="M168.2,220.4l5.9-54.4c15.2-5.8,36.3-30.5,37.7-59.8"/>
<path class="st2" d="M28.9,220.4h139.3"/>
<path class="st2" d="M20.6,101.1c-0.1,1.5,0,3-0.2,4.4c-3.5,24.8-6.2,23.2-6.1,45.8c0,27.1,9,58.3,11.6,66.8c0.4,1.3,1.6,2.2,3,2.2"
	/>
<path class="st2" d="M21,4.3c0.3,12.4,1.1,58.5-0.4,96.8"/>
<path class="st2" d="M192.8,153.3l8.3,63.6c0.2,1.9-1.2,3.5-3.1,3.5h-33.1"/>
<path class="st2" d="M158.8,123.5c0,0,18.2,16.4,15.3,42.5"/>
<path class="st2" d="M20.9,101.1c0,0,118-22.4,190.8,5.1"/>
<path class="st2" d="M106.7,115.9l-18,28.8"/>
<path class="st3" d="M31.6,186.9c-2.6-1.5-5.9-0.6-7.3,2L0.7,229.6c-0.5,0.8-0.7,1.7-0.7,2.7c0,3,2.4,5.4,5.4,5.4h47.1
	c0.9,0,1.9-0.2,2.7-0.7c2.6-1.5,3.5-4.8,2-7.3l-23.5-40.8C33.1,188,32.4,187.4,31.6,186.9L31.6,186.9z"/>
<path d="M28.7,220.5c-1.2,0-2.2-0.9-2.2-2.1l-1-15.7c0-0.1,0-0.2,0-0.2c0-1.8,1.5-3.3,3.3-3.2c0.1,0,0.2,0,0.2,0
	c1.8,0.1,3.1,1.7,3,3.5l-1,15.7C30.8,219.6,29.8,220.6,28.7,220.5L28.7,220.5z"/>
<path d="M28.6,223.3c1.8,0,3.3,1.4,3.5,3.2c0.1,1.9-1.3,3.5-3.2,3.7c-0.1,0-0.2,0-0.3,0c-1.9,0-3.4-1.5-3.3-3.4
	C25.3,224.9,26.8,223.4,28.6,223.3L28.6,223.3z"/>
</svg>
