<svg width="400" height="400" viewBox="0 0 400 400" fill="none" xmlns="http://www.w3.org/2000/svg">
<path d="M244.938 129.861C244.938 129.861 242.746 199.292 252.385 206.738C261.477 213.761 286.554 242.231 314.738 255.354C317.431 256.608 320.346 257.331 323.308 257.454C327.415 257.623 334.485 258.723 340.831 263.661C340.831 263.661 350.931 269.708 365.792 269.792C377.685 269.861 379 295.846 363.238 297.154C352.4 298.054 337.015 296.246 323.361 295.931C304.161 295.492 283.508 305.023 252.9 295.238C242.546 291.931 222.454 284.631 207.561 292.515C192.677 300.4 176.838 304.908 160.2 293.961C143.561 283.015 145.985 260.154 154.308 243.515C162.631 226.877 164.815 209.8 164.815 209.8C164.815 209.8 166.246 143.838 164.061 129.823" stroke="#6554C0" stroke-width="8.46154" stroke-linecap="round" stroke-linejoin="round"/>
<path d="M186.261 216.808C186.261 216.808 186.261 234.323 202.461 235.639" stroke="#6554C0" stroke-width="8.46154" stroke-linecap="round" stroke-linejoin="round"/>
<path d="M133.023 136.838C102.269 133.808 70.3615 91.4998 25 95.6768C25 95.6768 18.9385 102.608 27.1692 112.569C27.1692 112.569 31.2385 113.961 29.3385 126.431C29.3385 126.431 24.1385 135.961 36.2692 146.792C36.2692 146.792 31.9385 158.923 51.4308 171.484C51.4308 171.484 51.2923 181.254 60.0923 190.546C60.0923 190.546 55.3308 200.077 65.2923 208.308C65.2923 208.308 62.2615 230.4 103.846 238.2C103.846 238.2 177.054 243.669 192.215 222.608C218.285 186.392 163.785 139.884 133.031 136.854L133.023 136.838Z" fill="#C0B6F2"/>
<path d="M25.7692 100.292C25.7692 100.292 24.5846 120.9 73.5308 132.161C73.5308 132.161 123.923 147.531 136.485 153.915C147.708 159.623 185.723 174.177 180.092 207.538" stroke="#6554C0" stroke-width="8.46154" stroke-linecap="round" stroke-linejoin="round"/>
<path d="M31.6 133.385C31.6 133.385 25.7692 173.446 91.3769 175.469" stroke="#6554C0" stroke-width="8.46154" stroke-linecap="round" stroke-linejoin="round"/>
<path d="M60.0923 192.646C60.0923 192.646 67.1154 219.284 112.015 221.638" stroke="#6554C0" stroke-width="8.46154" stroke-linecap="round" stroke-linejoin="round"/>
<path d="M161.554 203.538C81.0077 193.377 86.3847 156.215 86.3847 156.215" stroke="#6554C0" stroke-width="8.46154" stroke-linecap="round" stroke-linejoin="round"/>
<path d="M92.823 197.131C92.823 197.131 87.623 231.492 161.554 226.723" stroke="#6554C0" stroke-width="8.46154" stroke-linecap="round" stroke-linejoin="round"/>
<path d="M131 168.6C131 168.6 126.723 196.077 153.669 202.408" stroke="#6554C0" stroke-width="8.46154" stroke-linecap="round" stroke-linejoin="round"/>
<path d="M130.754 208.208C130.754 208.208 126.092 225.408 149.485 227.184" stroke="#6554C0" stroke-width="8.46154" stroke-linecap="round" stroke-linejoin="round"/>
<path d="M133.162 250.431C147.977 250.431 159.985 262.439 159.985 277.254C159.985 292.069 147.977 304.077 133.162 304.077C118.346 304.077 106.339 292.069 106.339 277.254C106.339 262.439 118.346 250.431 133.162 250.431Z" fill="#57D9A3"/>
<path d="M127.708 287.723L119.054 278.592C118.654 278.169 118.669 277.5 119.092 277.1L121.392 274.915C121.815 274.515 122.485 274.531 122.885 274.954L128.623 281.008L143.585 266.761C144.008 266.361 144.677 266.377 145.077 266.8L147.261 269.1C147.661 269.523 147.646 270.192 147.223 270.592L129.192 287.761C128.769 288.161 128.1 288.146 127.692 287.723H127.708Z" fill="white"/>
</svg>
