<svg width="400" height="400" viewBox="0 0 400 400" fill="none" xmlns="http://www.w3.org/2000/svg">
<path d="M343.692 100.131H302.631C294.134 100.131 287.246 107.019 287.246 115.515V194.123C287.246 202.62 294.134 209.508 302.631 209.508H343.692C352.189 209.508 359.077 202.62 359.077 194.123V115.515C359.077 107.019 352.189 100.131 343.692 100.131Z" fill="#C0B6F2"/>
<path opacity="0.5" d="M24.3539 145.523L23.7847 145.538C17.4 145.831 12.3077 151.108 12.3077 157.569C12.3077 164.031 17.7 169.608 24.3539 169.608H40.4077V145.523H24.3539Z" fill="#C0B6F2"/>
<path opacity="0.5" d="M375.131 145.523H359.077V169.608H375.131L375.7 169.592C382.085 169.292 387.177 164.023 387.177 157.561C387.177 151.1 381.785 145.523 375.131 145.523V145.523Z" fill="#C0B6F2"/>
<path opacity="0.5" d="M165.138 169.608H111.708V145.523H148.254C150.431 147.954 156.738 163.208 165.138 169.608Z" fill="#C0B6F2"/>
<path opacity="0.5" d="M200.454 145.531H227.769C211.854 151.446 202.469 160.462 196.992 169.615H171.038C175.008 165.277 180.323 156.162 175.392 146.969C182.446 157.277 190.831 164.854 197.523 161.369C201.408 159.354 201.946 153.177 200.462 145.531H200.454Z" fill="#C0B6F2"/>
<path opacity="0.5" d="M287.246 145.531V169.615H265.038C265.1 168.954 265.123 168.308 265.108 167.677C264.954 162.069 263.7 154.485 264.431 145.531H287.246Z" fill="#C0B6F2"/>
<path d="M224.6 302.992C224.6 302.992 221.385 288.184 222.092 231.784C222.108 230.523 222.631 229.315 223.538 228.446C231.031 221.231 265.631 186.846 265.108 168.292C264.9 160.769 262.715 149.7 266.008 136.538C269.3 123.369 271.392 104.908 268.377 100.246C265.361 95.5844 237.169 74.9075 232.992 74.9998C223.831 75.2075 224.746 99.469 242.3 110.984C242.3 110.984 234.146 131.808 235.792 143.331" stroke="#6554C0" stroke-width="8.46154" stroke-linecap="round" stroke-linejoin="round"/>
<path d="M189.862 203.831C189.862 203.831 182.408 158.762 234.492 143.938" stroke="#6554C0" stroke-width="8.46154" stroke-linecap="round" stroke-linejoin="round"/>
<path d="M160.7 237.592C160.7 237.592 181.008 246.208 201.777 238.708" stroke="#6554C0" stroke-width="8.46154" stroke-linecap="round" stroke-linejoin="round"/>
<path d="M225.185 87.4382C225.185 87.4382 205.731 81.7075 206.162 96.1229C206.569 109.907 223.531 140.723 232.146 137.492C240.015 134.546 236.339 106.023 233.992 103.215" stroke="#6554C0" stroke-width="8.46154" stroke-linecap="round" stroke-linejoin="round"/>
<path d="M203.077 94.5153C203.077 94.5153 190.408 89.2384 184.885 102.754C182.923 107.538 201.577 157.569 219.315 145.054C219.315 145.054 223.792 142.3 223.792 136.3" stroke="#6554C0" stroke-width="8.46154" stroke-linecap="round" stroke-linejoin="round"/>
<path d="M176.423 106.184C171.846 102.754 160.969 108.169 159.5 115.108C156.223 130.508 182.723 165.384 195.638 157.569C207.992 150.1 185.923 113.3 176.423 106.184V106.184Z" stroke="#6554C0" stroke-width="8.46154" stroke-linecap="round" stroke-linejoin="round"/>
<path d="M152.862 122.423C147.215 118.731 126.331 124.938 128.846 141.408C128.846 141.408 132.223 141.154 141.885 145.523C144.4 146.662 154.277 175.708 169.331 166.108C181.869 158.108 159.515 126.777 152.862 122.423Z" stroke="#6554C0" stroke-width="8.46154" stroke-linecap="round" stroke-linejoin="round"/>
<path d="M133.131 172.7C133.131 172.7 139.192 209.908 143.392 235.823C150.115 277.292 145.669 306.554 145.669 306.554" stroke="#6554C0" stroke-width="8.46154" stroke-linecap="round" stroke-linejoin="round"/>
<path d="M96.8539 100.131H55.7923C47.2956 100.131 40.4077 107.019 40.4077 115.515V194.123C40.4077 202.62 47.2956 209.508 55.7923 209.508H96.8539C105.351 209.508 112.238 202.62 112.238 194.123V115.515C112.238 107.019 105.351 100.131 96.8539 100.131Z" fill="#C0B6F2"/>
<path d="M83.8944 149.586C83.9382 150.595 84.7715 151.393 85.7889 151.393C86.8064 151.393 87.6923 150.542 87.6923 149.49V147.253C87.5958 141.613 83.4646 136.973 78.0615 136.078V131.807C78.0089 130.798 77.1844 130 76.1582 130C75.132 130 74.2549 130.851 74.2549 131.903V136.078C68.7904 136.982 64.6241 141.718 64.6241 147.446V148.411C64.7294 154.691 69.8517 159.752 76.1582 159.752H76.2985C80.5087 159.831 83.8944 163.26 83.8944 167.488V168.409C83.8154 172.619 80.3859 176.005 76.1582 176.005C71.9305 176.005 68.422 172.54 68.422 168.269V166.137C68.3694 165.128 67.5449 164.33 66.5187 164.33C65.4925 164.33 64.6154 165.181 64.6154 166.234V168.47C64.7118 174.11 68.8431 178.75 74.2461 179.645V183.916C74.2987 184.925 75.1232 185.723 76.1494 185.723C77.1757 185.723 78.0528 184.872 78.0528 183.82V179.645C83.5172 178.741 87.6835 174.005 87.6835 168.277V167.313C87.5783 161.032 82.4559 155.971 76.1494 155.971H76.0091C71.7989 155.892 68.4133 152.463 68.4133 148.235V147.314C68.4922 143.104 71.9217 139.718 76.1494 139.718C80.3771 139.718 83.8856 143.183 83.8856 147.455V149.586H83.8944Z" fill="#6554C0" stroke="#6554C0" stroke-width="1.53846" stroke-miterlimit="10"/>
<path d="M330.817 149.586C330.861 150.595 331.695 151.393 332.712 151.393C333.729 151.393 334.615 150.542 334.615 149.49V147.253C334.519 141.613 330.388 136.973 324.985 136.078V131.807C324.932 130.798 324.108 130 323.081 130C322.055 130 321.178 130.851 321.178 131.903V136.078C315.714 136.982 311.547 141.718 311.547 147.446V148.411C311.652 154.691 316.775 159.752 323.081 159.752H323.222C327.432 159.831 330.817 163.26 330.817 167.488V168.409C330.739 172.619 327.309 176.005 323.081 176.005C318.854 176.005 315.345 172.54 315.345 168.269V166.137C315.293 165.128 314.468 164.33 313.442 164.33C312.416 164.33 311.538 165.181 311.538 166.234V168.47C311.635 174.11 315.766 178.75 321.169 179.645V183.916C321.222 184.925 322.046 185.723 323.073 185.723C324.099 185.723 324.976 184.872 324.976 183.82V179.645C330.44 178.741 334.607 174.005 334.607 168.277V167.313C334.501 161.032 329.379 155.971 323.073 155.971H322.932C318.722 155.892 315.336 152.463 315.336 148.235V147.314C315.415 143.104 318.845 139.718 323.073 139.718C327.3 139.718 330.809 143.183 330.809 147.455V149.586H330.817Z" fill="#6554C0" stroke="#6554C0" stroke-width="1.53846" stroke-miterlimit="10"/>
<path d="M237.592 276.162C252.408 276.162 264.415 288.169 264.415 302.985C264.415 317.8 252.408 329.808 237.592 329.808C222.777 329.808 210.769 317.8 210.769 302.985C210.769 288.169 222.777 276.162 237.592 276.162Z" fill="#57D9A3"/>
<path d="M232.138 313.454L223.485 304.323C223.085 303.9 223.1 303.231 223.523 302.831L225.823 300.646C226.246 300.246 226.915 300.262 227.315 300.685L233.054 306.739L248.015 292.492C248.438 292.092 249.108 292.108 249.508 292.531L251.692 294.831C252.092 295.254 252.077 295.923 251.654 296.323L233.623 313.492C233.2 313.892 232.531 313.877 232.123 313.454H232.138Z" fill="white"/>
</svg>
