<?xml version="1.0" encoding="UTF-8"?>
<svg width="358px" height="29px" viewBox="0 0 358 29" version="1.1" xmlns="http://www.w3.org/2000/svg" xmlns:xlink="http://www.w3.org/1999/xlink">
    <title>Artboard</title>
    <defs>
        <linearGradient x1="41.0220879%" y1="6.61341013%" x2="57.3819578%" y2="63.7134248%" id="linearGradient-1">
            <stop stop-color="#0052CC" offset="0%"></stop>
            <stop stop-color="#2684FF" offset="100%"></stop>
        </linearGradient>
    </defs>
    <g id="Artboard" stroke="none" stroke-width="1" fill="none" fill-rule="evenodd">
        <g id="Jira-Service-Management_24" transform="translate(4.000000, 3.000000)" fill-rule="nonzero">
            <path d="M9.63648,8.91083 L15.2617,8.94578 C15.4243,8.94653 15.5834,8.99247 15.7214,9.07846 C15.8594,9.16446 15.9707,9.28713 16.0429,9.43275 C16.1152,9.57838 16.1455,9.74123 16.1306,9.90311 C16.1156,10.065 16.0559,10.2195 15.9582,10.3494 L7.65743,21.4251 C6.40557,20.4885 5.57666,19.0933 5.3528,17.546 C5.12895,15.9987 5.52845,14.4258 6.46355,13.1728 L9.63648,8.91083 Z" id="Path" fill="url(#linearGradient-1)"></path>
            <path d="M6.46085,13.1621 L0.87056,13.1272 C0.708452,13.126 0.549828,13.08 0.41232,12.9941 C0.274812,12.9083 0.163807,12.786 0.0916428,12.6408 C0.0194785,12.4956 -0.0110177,12.3333 0.00354389,12.1718 C0.0181054,12.0104 0.0771543,11.8561 0.174127,11.7262 L8.3915,0.75 C9.64337,1.68658 10.4723,3.08178 10.6961,4.62911 C10.92,6.17644 10.5205,7.74936 9.58539,9.00233 L6.46085,13.1621 Z" id="Path" fill="#2684FF"></path>
        </g>
        <text id="Perfectly-Adequate-D" font-family="CharlieDisplay-Regular, Charlie Display" font-size="24" font-weight="normal" letter-spacing="-0.168723" fill="#253858">
            <tspan x="27" y="22">Perfectly Adequate Deployment</tspan>
        </text>
    </g>
</svg>